[
  {
    "name": "Interior Overall",
    "imageUrl": "",
    "notes": "",
    "level": ""
  },
  {
    "name": "Odour",
    "imageUrl": "",
    "notes": "",
    "level": ""
  },
  {
    "name": "Dashboard",
    "imageUrl": "",
    "notes": "",
    "damage": "",
    "level": ""
  },
  {
    "name": "Front Compartment",
    "imageUrl": "",
    "notes": "",
    "damage": "",
    "level": ""
  },
  {
    "name": "Steering Wheel",
    "imageUrl": "",
    "notes": "",
    "damage": "",
    "level": ""
  },
  {
    "name": "Front Door Trim Right",
    "imageUrl": "",
    "notes": "",
    "damage": "",
    "level": ""
  },
  {
    "name": "Front Door Trim Left",
    "imageUrl": "",
    "notes": "",
    "damage": "",
    "level": ""
  },
  {
    "name": "Front Seat Right",
    "imageUrl": "",
    "notes": "",
    "damage": "",
    "level": ""
  },
  {
    "name": "Front Seat Left",
    "imageUrl": "",
    "notes": "",
    "damage": "",
    "level": ""
  },
  {
    "name": "Gear Shift & Console Box",
    "imageUrl": "",
    "notes": "",
    "damage": "",
    "level": ""
  },
  {
    "name": "Front Seat Headrest Right",
    "imageUrl": "",
    "notes": "",
    "damage": "",
    "level": ""
  },
  {
    "name": "Front Seat Headrest Left",
    "imageUrl": "",
    "notes": "",
    "damage": "",
    "level": ""
  },
  {
    "name": "2nd Row Door Trim Right",
    "imageUrl": "",
    "notes": "",
    "damage": "",
    "level": ""
  },
  {
    "name": "2nd Row Door Trim Left",
    "imageUrl": "",
    "notes": "",
    "damage": "",
    "level": ""
  },
  {
    "name": "2nd Row seat Rigt",
    "imageUrl": "",
    "notes": "",
    "damage": "",
    "level": ""
  },
  {
    "name": "2nd Row seat Mid",
    "imageUrl": "",
    "notes": "",
    "damage": "",
    "level": ""
  },
  {
    "name": "2nd Row seat Left",
    "imageUrl": "",
    "notes": "",
    "damage": "",
    "level": ""
  },
  {
    "name": "2nd Row Seat Headrest Right",
    "imageUrl": "",
    "notes": "",
    "damage": "",
    "level": ""
  },
  {
    "name": "2nd Row Seat Headrest Mid",
    "imageUrl": "",
    "notes": "",
    "damage": "",
    "level": ""
  },
  {
    "name": "2nd Row Seat Headrest Left",
    "imageUrl": "",
    "notes": "",
    "damage": "",
    "level": ""
  },
  {
    "name": "Luggage Space Area",
    "imageUrl": "",
    "notes": "",
    "damage": "",
    "level": ""
  },
  {
    "name": "Roof Lining",
    "imageUrl": "",
    "notes": "",
    "damage": "",
    "level": ""
  },
  {
    "name": "Carpet Damage",
    "imageUrl": "",
    "notes": "",
    "damage": "",
    "level": ""
  },
  {
    "name": "3rd Row Seat Seat Damage",
    "imageUrl": "",
    "notes": "",
    "damage": "",
    "level": ""
  },
  {
    "name": "Back Door Trim Damage",
    "imageUrl": "",
    "notes": "",
    "damage": "",
    "level": ""
  }
]
